{
  "numPorts":"1",
  "jarPath":"hadoop-yarn-applications-popcorn-2.6.0.jar",
  "arguments": {
    "containerConfs/worker/numProcesses":"wn",
    "containerConfs/worker/envVars/WORKER_ARGS":"wa",
    "containerConfs/server/numProcesses":"sn",
    "containerConfs/server/envVars/WORKER_NUM_PROCESSES":"wn",
    "containerConfs/server/envVars/SERVER_ARGS":"sa"
  },
  "containerConfs":{
    "worker":{
      "numProcesses":"1",
      "processMemory":"4096",
      "processVCores":"4",
      "resourcePaths":["worker"],
      "envVars":{
        "WORKER_ARGS":""
      },
      "genFiles":["server_machine_list"],
	  "executeDir":"worker",
      "executeFilename":"start.bat",
      "waitForCompletion":"true"
    },
    "server":{
      "numProcesses":"1",
      "processMemory":"2048",
      "processVCores":"2",
      "resourcePaths":["server"],
      "observeOutput":"true",
	  "envVars":{
		"SERVER_ARGS":"",
		"WORKER_NUM_PROCESSES":""
	  },
      "genEnvVars":["PORT_ARG_0", "RANK", "IP"],
	  "executeDir":"server",
      "executeFilename":"start.bat",
	  "machineListFormat":"%RANK% %IP%:%PORT_ARG_0%"
    }
  },
  "launchOrder":["server", "worker"],
  "exclusions":[["server", "server"], ["server", "worker"], ["worker", "worker"]]
}